stage,ranking,Rnk,Rider,Age,Team,Pnt,Time
overall,GC,1,oscar-freire,31,rabobank-proteam-2007,275,6:43:59
overall,GC,2,allan-davis,26,discovery-channel-2007,200,0:00
overall,GC,3,tom-boonen,26,quickstep-innergetic-2007,150,0:00
overall,GC,4,robbie-mcewen,34,predictor-lotto-2007,120,0:00
overall,GC,5,stuart-o-grady,33,csc-proteam-2007,100,0:00
overall,GC,6,erik-zabel,36,team-milram-2007,90,0:00
overall,GC,7,gabriele-balducci,31,acqua-sapone-caffe-mokambo-2007,80,0:00
overall,GC,8,alessandro-petacchi,33,team-milram-2007,70,0:00
overall,GC,9,vicente-reynes,25,caisse-d-epargne-2007,60,0:00
overall,GC,10,robert-hunter,29,barloworld-2007,50,0:00
overall,GC,11,danilo-napolitano,26,lampre-fondital-2007,46,0:00
overall,GC,12,luca-paolini,30,liquigas-2007,42,0:01
overall,GC,13,kim-kirchen,28,t-mobile-team-2007,38,0:01
overall,GC,14,martin-elmiger,28,ag2r-prevoyance-2007,34,0:01
overall,GC,15,cristian-moreni,34,cofidis-le-credit-par-telephone-2007,30,0:01
overall,GC,16,stefan-schumacher,25,gerolsteiner-2007,28,0:01
overall,GC,17,jeremy-hunt,33,unibet.com-2007,26,0:01
overall,GC,18,manuele-mori,26,saunier-duval-2007,24,0:01
overall,GC,19,filippo-pozzato,25,liquigas-2007,22,0:01
overall,GC,20,william-bonnet,24,credit-agricole-2007,20,0:01
overall,GC,21,philippe-gilbert,24,francaise-des-jeux-2007,19,0:01
overall,GC,22,julian-dean,32,credit-agricole-2007,18,0:01
overall,GC,23,vladimir-gusev,24,discovery-channel-2007,17,0:01
overall,GC,24,rene-mandri,23,ag2r-prevoyance-2007,16,0:01
overall,GC,25,pablo-lastras,31,caisse-d-epargne-2007,15,0:01
overall,GC,26,daniele-bennati,26,lampre-fondital-2007,14,0:01
overall,GC,27,gerald-ciolek,20,t-mobile-team-2007,13,0:01
overall,GC,28,yaroslav-popovych,27,discovery-channel-2007,12,0:01
overall,GC,29,frank-schleck,26,csc-proteam-2007,11,0:02
overall,GC,30,davide-rebellin,35,gerolsteiner-2007,10,0:02
overall,GC,31,enrico-gasparotto,25,liquigas-2007,9,0:02
overall,GC,32,gregory-rast,27,astana-2007,8,0:02
overall,GC,33,paolo-bettini,32,quickstep-innergetic-2007,7,0:02
overall,GC,34,bernhard-eisel,26,t-mobile-team-2007,6,0:03
overall,GC,35,renaud-dion,29,ag2r-prevoyance-2007,5,0:03
overall,GC,36,tomas-vaitkus,25,discovery-channel-2007,5,0:03
overall,GC,37,marco-velo,33,team-milram-2007,5,0:03
overall,GC,38,riccardo-ricco,23,saunier-duval-2007,5,0:03
overall,GC,39,juan-antonio-flecha,29,rabobank-proteam-2007,5,0:03
overall,GC,40,mario-aerts,32,predictor-lotto-2007,5,0:03
overall,GC,41,koldo-fernandez,25,euskaltel-euskadi-2007,5,0:03
overall,GC,42,roger-hammond,33,t-mobile-team-2007,5,0:03
overall,GC,43,rene-haselbacher,29,astana-2007,5,0:03
overall,GC,44,nick-nuyens,26,cofidis-le-credit-par-telephone-2007,5,0:04
overall,GC,45,luca-mazzanti,33,ceramica-panaria-navigare-2007,5,0:04
overall,GC,46,lorenzo-bernucci,27,t-mobile-team-2007,5,0:04
overall,GC,47,stefano-garzelli,33,acqua-sapone-caffe-mokambo-2007,5,0:06
overall,GC,48,fabio-sacchi,32,team-milram-2007,5,0:07
overall,GC,49,arnaud-coyot,26,unibet.com-2007,5,0:13
overall,GC,50,lloyd-mondory,24,ag2r-prevoyance-2007,5,0:13
overall,GC,51,imanol-erviti,23,caisse-d-epargne-2007,5,0:14
overall,GC,52,max-van-heeswijk,34,rabobank-proteam-2007,5,0:14
overall,GC,53,volodymyr-bileka,28,discovery-channel-2007,5,0:14
overall,GC,54,luca-solari,27,team-lpr-2007,5,0:15
overall,GC,55,alessandro-ballan,27,lampre-fondital-2007,5,0:15
overall,GC,56,laurens-ten-dam,26,unibet.com-2007,5,0:15
overall,GC,57,jesus-del-nero,25,saunier-duval-2007,5,0:16
overall,GC,58,karsten-kroon,31,csc-proteam-2007,5,0:16
overall,GC,59,jerome-pineau,27,bouygues-telecom-2007,5,0:16
overall,GC,60,matti-breschel,22,csc-proteam-2007,5,0:16
overall,GC,61,thomas-lofkvist,22,francaise-des-jeux-2007,5,0:16
overall,GC,62,claudio-corioni,24,lampre-fondital-2007,5,0:17
overall,GC,63,simone-masciarelli,27,acqua-sapone-caffe-mokambo-2007,5,0:18
overall,GC,64,stephen-cummings,26,discovery-channel-2007,5,0:21
overall,GC,65,mirko-celestino,34,team-milram-2007,5,0:21
overall,GC,66,thomas-voeckler,27,bouygues-telecom-2007,5,0:22
overall,GC,67,ricardo-serrano,28,tinkoff-credit-systems-2007,5,0:23
overall,GC,68,gorazd-stangelj,34,lampre-fondital-2007,5,0:23
overall,GC,69,francisco-javier-patxi-vila,31,lampre-fondital-2007,5,0:23
overall,GC,70,angel-gomez-gomez,25,saunier-duval-2007,5,0:23
overall,GC,71,david-millar,30,saunier-duval-2007,5,0:23
overall,GC,72,igor-astarloa-ascasibar,30,team-milram-2007,5,0:23
overall,GC,73,kanstantsin-siutsou,24,barloworld-2007,5,0:29
overall,GC,74,sergey-kolesnikov,20,unibet.com-2007,5,0:29
overall,GC,75,vasil-kiryienka,25,tinkoff-credit-systems-2007,5,0:37
overall,GC,76,matthias-kessler,27,astana-2007,5,0:40
overall,GC,77,alberto-ongarato,31,team-milram-2007,5,1:14
overall,GC,78,matteo-tosatto,32,quickstep-innergetic-2007,5,1:14
overall,GC,79,alexander-efimkin,25,barloworld-2007,5,1:14
overall,GC,80,franco-pellizotti,29,liquigas-2007,5,1:14
overall,GC,81,benat-albizuri-aransolo,25,euskaltel-euskadi-2007,5,1:14
overall,GC,82,fran-ventoso,24,saunier-duval-2007,5,1:15
overall,GC,83,aaron-kemps,23,astana-2007,5,1:23
overall,GC,84,axel-merckx,34,t-mobile-team-2007,5,1:23
overall,GC,85,carlos-barredo,25,quickstep-innergetic-2007,5,1:41
overall,GC,86,mathew-hayman,28,rabobank-proteam-2007,5,1:57
overall,GC,87,johan-vansummeren,26,predictor-lotto-2007,5,2:22
overall,GC,88,bjorn-leukemans,29,predictor-lotto-2007,5,2:38
overall,GC,89,borut-bozic,26,team-lpr-2007,5,3:14
overall,GC,90,sebastien-rosseler,25,quickstep-innergetic-2007,5,3:15
overall,GC,91,giovanni-visconti,24,quickstep-innergetic-2007,5,3:16
overall,GC,92,tiziano-dall-antonia,23,ceramica-panaria-navigare-2007,5,3:16
overall,GC,93,dario-david-cioni,32,predictor-lotto-2007,5,3:45
overall,GC,94,laszlo-bodrogi,30,credit-agricole-2007,5,4:19
overall,GC,95,alessandro-spezialetti,32,liquigas-2007,5,4:20
overall,GC,96,salvatore-commesso,31,tinkoff-credit-systems-2007,5,4:20
overall,GC,97,marcus-ljungqvist,32,csc-proteam-2007,5,4:20
overall,GC,98,dario-andriotto,34,acqua-sapone-caffe-mokambo-2007,5,4:20
overall,GC,99,eric-berthou,27,caisse-d-epargne-2007,5,4:21
overall,GC,100,elio-aggiano,35,tinkoff-credit-systems-2007,5,4:21
overall,GC,101,matthew-white,33,discovery-channel-2007,5,4:41
overall,GC,102,sylvain-calzati,27,ag2r-prevoyance-2007,5,4:41
overall,GC,103,emanuele-sella,26,ceramica-panaria-navigare-2007,5,4:46
overall,GC,104,roberto-petito,36,liquigas-2007,5,4:47
overall,GC,105,fabio-baldato,38,lampre-fondital-2007,5,4:47
overall,GC,106,maurizio-bellin,24,team-lpr-2007,5,4:47
overall,GC,107,daniele-righi,30,lampre-fondital-2007,5,4:48
overall,GC,108,wim-vansevenant,35,predictor-lotto-2007,5,4:49
overall,GC,109,kevin-hulsmans,28,quickstep-innergetic-2007,5,6:33
overall,GC,110,fabian-cancellara,26,csc-proteam-2007,5,6:33
overall,GC,111,ariel-maximiliano-richeze,24,ceramica-panaria-navigare-2007,5,7:04
overall,GC,112,gorik-gardeyn,27,unibet.com-2007,5,8:03
overall,GC,113,aitor-hernandez-gutierrez,25,euskaltel-euskadi-2007,5,9:37
overall,GC,114,staf-scheirlinckx,28,cofidis-le-credit-par-telephone-2007,5,9:37
overall,GC,115,thomas-fothen,23,gerolsteiner-2007,5,9:37
overall,GC,116,iban-mayoz-echeverria,25,euskaltel-euskadi-2007,5,9:37
overall,GC,117,antonio-cruz-1,35,discovery-channel-2007,5,9:37
overall,GC,118,gennady-mikhaylov,33,astana-2007,5,9:37
overall,GC,119,christophe-laurent,29,credit-agricole-2007,5,9:37
overall,GC,120,anthony-geslin,26,bouygues-telecom-2007,5,9:38
overall,GC,121,sergei-ivanov,32,astana-2007,5,9:38
overall,GC,122,alexei-markov,27,caisse-d-epargne-2007,5,9:38
overall,GC,123,pavel-brutt,25,tinkoff-credit-systems-2007,5,9:38
overall,GC,124,mikhail-ignatiev,21,tinkoff-credit-systems-2007,5,9:38
overall,GC,125,bert-grabsch,31,t-mobile-team-2007,5,9:38
overall,GC,126,massimo-codol,34,acqua-sapone-caffe-mokambo-2007,5,9:38
overall,GC,127,ignacio-gutierrez,29,team-lpr-2007,5,9:38
overall,GC,128,michal-golas,22,unibet.com-2007,5,9:38
overall,GC,129,peter-wrolich,32,gerolsteiner-2007,5,9:38
overall,GC,130,luke-roberts-1,30,csc-proteam-2007,5,9:38
overall,GC,131,ryan-cox,27,barloworld-2007,5,9:39
overall,GC,132,diego-caccia,25,barloworld-2007,5,9:39
overall,GC,133,marco-marcato,23,team-lpr-2007,5,9:39
overall,GC,134,juan-jose-haedo,26,csc-proteam-2007,5,9:39
overall,GC,135,manuel-quinziato,27,liquigas-2007,5,9:39
overall,GC,136,pedro-horrillo,32,rabobank-proteam-2007,5,9:39
overall,GC,137,fortunato-baliani,32,ceramica-panaria-navigare-2007,5,9:40
overall,GC,138,matteo-priamo,25,ceramica-panaria-navigare-2007,5,9:40
overall,GC,139,jimmy-casper,28,unibet.com-2007,5,9:40
overall,GC,140,carlos-da-cruz,32,francaise-des-jeux-2007,5,9:40
overall,GC,141,paolo-longo-borghini,26,barloworld-2007,5,9:40
overall,GC,142,kevin-van-impe,25,quickstep-innergetic-2007,5,9:40
overall,GC,143,jan-boven,35,rabobank-proteam-2007,5,9:42
overall,GC,144,franck-renier,32,bouygues-telecom-2007,5,14:14
overall,GC,145,alexandre-pichot,24,bouygues-telecom-2007,5,14:14
overall,GC,146,mathieu-perget,22,caisse-d-epargne-2007,5,14:14
overall,GC,147,mathieu-heijboer,25,cofidis-le-credit-par-telephone-2007,5,14:14
overall,GC,148,rony-martias,26,bouygues-telecom-2007,5,14:15
overall,GC,149,anton-luengo,26,euskaltel-euskadi-2007,5,14:15
overall,GC,150,aketza-pena,26,euskaltel-euskadi-2007,5,14:15
overall,GC,151,ludovic-auger,36,francaise-des-jeux-2007,5,14:15
overall,GC,152,andrei-kunitski,22,acqua-sapone-caffe-mokambo-2007,5,14:16
overall,GC,153,alessandro-donati,27,acqua-sapone-caffe-mokambo-2007,5,14:16
overall,GC,154,sebastien-minard,24,cofidis-le-credit-par-telephone-2007,5,14:16
overall,GC,155,xavier-florencio,27,bouygues-telecom-2007,5,14:17
overall,GC,156,yuriy-krivtsov,28,ag2r-prevoyance-2007,5,18:04
overall,GC,157,fabien-patanchon,23,francaise-des-jeux-2007,5,18:05
overall,GC,158,kevin-de-weert,24,cofidis-le-credit-par-telephone-2007,5,19:13
overall,GC,159,giuseppe-palumbo,31,acqua-sapone-caffe-mokambo-2007,5,19:36
overall,GC,160,michiel-elijzen,24,cofidis-le-credit-par-telephone-2007,5,19:36
overall,GC,DNF,bram-de-groot,32,rabobank-proteam-2007,,-
overall,GC,DNF,samuel-dumoulin,26,ag2r-prevoyance-2007,,-
overall,GC,DNF,erki-putsep,30,bouygues-telecom-2007,,-
overall,GC,DNF,fabrizio-guidi,34,barloworld-2007,,-
overall,GC,DNF,unai-etxebarria-arana,34,euskaltel-euskadi-2007,,-
overall,GC,DNF,giosue-bonomi,28,barloworld-2007,,-
overall,GC,DNF,jon-bru,29,euskaltel-euskadi-2007,,-
overall,GC,DNF,fabian-wegmann,26,gerolsteiner-2007,,-
overall,GC,DNF,christophe-mengin,38,francaise-des-jeux-2007,,-
overall,GC,DNF,francesco-tomei,21,ceramica-panaria-navigare-2007,,-
overall,GC,DNF,paride-grillo,25,ceramica-panaria-navigare-2007,,-
