stage,ranking,Rnk,Rider,Age,Team,UCI,Pnt,Time
overall,GC,1,oscar-freire,34,rabobank-proteam-2010,100,275,6:57:28
overall,GC,2,tom-boonen,29,quickstep-innergetic-2010,80,200,0:00
overall,GC,3,alessandro-petacchi,36,lampre-farnese-vini-2010,70,150,0:00
overall,GC,4,sacha-modolo,22,colnago-csf-inox-2010,60,120,0:00
overall,GC,5,daniele-bennati,29,liquigas-doimo-2010,50,100,0:00
overall,GC,6,thor-hushovd,32,cervelo-test-team-2010,40,90,0:00
overall,GC,7,francesco-ginanni,24,androni-giocattoli-serramenti-pvc-diquigiovanni-2010,30,80,0:00
overall,GC,8,maxim-iglinskiy,28,astana-pro-team-2010,20,70,0:00
overall,GC,9,philippe-gilbert,27,omega-pharma-lotto-2010,10,60,0:00
overall,GC,10,luca-paolini,33,acqua-sapone-2010,4,50,0:00
overall,GC,11,matti-breschel,25,saxo-bank-2010,,46,0:00
overall,GC,12,anthony-geslin,29,francaise-des-jeux-2010,,42,0:00
overall,GC,13,enrico-gasparotto,27,astana-pro-team-2010,,38,0:00
overall,GC,14,geoffroy-lequatre,28,radioshack-2010,,34,0:00
overall,GC,15,paul-martens,26,rabobank-proteam-2010,,30,0:00
overall,GC,16,yoann-offredo,23,francaise-des-jeux-2010,,28,0:00
overall,GC,17,fabian-cancellara,29,saxo-bank-2010,,26,0:00
overall,GC,18,juan-antonio-flecha,32,sky-procycling-2010,,24,0:00
overall,GC,19,linus-gerdemann,27,milram-2010,,22,0:00
overall,GC,20,pablo-lastras,34,caisse-d-epargne-2010,,20,0:00
overall,GC,21,sylvain-chavanel,30,quickstep-innergetic-2010,,19,0:00
overall,GC,22,marcus-burghardt,26,bmc-racing-team-2010,,18,0:00
overall,GC,23,daniel-oss,23,liquigas-doimo-2010,,17,0:00
overall,GC,24,xavier-florencio,30,cervelo-test-team-2010,,16,0:00
overall,GC,25,michael-rogers,30,team-htc-columbia-2010,,15,0:00
overall,GC,26,andrei-grivko,26,astana-pro-team-2010,,14,0:09
overall,GC,27,thomas-lofkvist,25,sky-procycling-2010,,13,0:09
overall,GC,28,vincenzo-nibali,25,liquigas-doimo-2010,,12,0:09
overall,GC,29,filippo-pozzato,28,team-katusha-2010,,11,0:08
overall,GC,30,michele-scarponi,30,androni-giocattoli-serramenti-pvc-diquigiovanni-2010,,10,0:21
overall,GC,31,sergei-ivanov,35,team-katusha-2010,,9,0:39
overall,GC,32,simon-clarke,23,isd-neri-2010,,8,1:35
overall,GC,33,lorenzo-bernucci,30,lampre-farnese-vini-2010,,7,1:35
overall,GC,34,damiano-cunego,28,lampre-farnese-vini-2010,,6,1:35
overall,GC,35,andreas-klier,34,cervelo-test-team-2010,,5,1:35
overall,GC,36,alan-lezaun-perez,27,euskaltel-euskadi-2010,,5,1:40
overall,GC,37,dmitriy-muravyev,30,radioshack-2010,,5,1:40
overall,GC,38,lloyd-mondory,27,ag2r-la-mondiale-2010,,5,1:40
overall,GC,39,jose-joaquin-rojas,24,caisse-d-epargne-2010,,5,1:40
overall,GC,40,fran-ventoso,27,carmiooro-ngc-2010,,5,1:40
overall,GC,41,niki-terpstra,25,milram-2010,,5,1:40
overall,GC,42,tyler-farrar,25,team-garmin-transitions-2010,,5,1:40
overall,GC,43,juan-jose-oroz,29,euskaltel-euskadi-2010,,5,1:40
overall,GC,44,bernhard-eisel,29,team-htc-columbia-2010,,5,1:40
overall,GC,45,ruben-perez-moreno,28,euskaltel-euskadi-2010,,5,1:40
overall,GC,46,alexandr-kolobnev,28,team-katusha-2010,,5,1:40
overall,GC,47,greg-van-avermaet,24,omega-pharma-lotto-2010,,5,1:40
overall,GC,48,eduard-vorganov,27,team-katusha-2010,,5,1:40
overall,GC,49,rui-costa,23,caisse-d-epargne-2010,,5,1:40
overall,GC,50,christian-knees,29,milram-2010,,5,1:40
overall,GC,51,markus-fothen,28,milram-2010,,5,1:40
overall,GC,52,karsten-kroon,34,bmc-racing-team-2010,,5,1:40
overall,GC,53,wesley-sulzberger,23,francaise-des-jeux-2010,,5,1:40
overall,GC,54,michael-barry,34,sky-procycling-2010,,5,1:40
overall,GC,55,george-hincapie,36,bmc-racing-team-2010,,5,1:40
overall,GC,56,markel-irizar,30,radioshack-2010,,5,1:40
overall,GC,57,sebastien-rosseler,28,radioshack-2010,,5,1:40
overall,GC,58,jackson-rodriguez,25,androni-giocattoli-serramenti-pvc-diquigiovanni-2010,,5,1:40
overall,GC,59,gabriel-rasch,33,cervelo-test-team-2010,,5,1:40
overall,GC,60,bram-tankink,31,rabobank-proteam-2010,,5,1:40
overall,GC,61,nick-nuyens,29,rabobank-proteam-2010,,5,1:40
overall,GC,62,sebastian-langeveld,25,rabobank-proteam-2010,,5,1:40
overall,GC,63,oscar-gatto,25,isd-neri-2010,,5,1:40
overall,GC,64,alessandro-ballan,30,bmc-racing-team-2010,,5,1:40
overall,GC,65,sebastien-hinault,36,ag2r-la-mondiale-2010,,5,1:40
overall,GC,66,rene-mandri,26,ag2r-la-mondiale-2010,,5,1:40
overall,GC,67,william-bonnet,27,bbox-bouygues-telecom-2010,,5,1:40
overall,GC,68,matteo-tosatto,35,quickstep-innergetic-2010,,5,1:40
overall,GC,69,emanuele-sella,29,carmiooro-ngc-2010,,5,1:40
overall,GC,70,francesco-gavazzi,25,lampre-farnese-vini-2010,,5,1:40
overall,GC,71,jerome-pineau,30,quickstep-innergetic-2010,,5,1:40
overall,GC,72,inaki-isasi-flores,32,euskaltel-euskadi-2010,,5,1:40
overall,GC,73,domenico-pozzovivo,27,colnago-csf-inox-2010,,5,1:40
overall,GC,74,mirco-lorenzetto,28,lampre-farnese-vini-2010,,5,1:40
overall,GC,75,dries-devenyns,26,quickstep-innergetic-2010,,5,1:40
overall,GC,76,jose-rodolfo-serpa,30,androni-giocattoli-serramenti-pvc-diquigiovanni-2010,,5,1:40
overall,GC,77,manuele-mori,29,lampre-farnese-vini-2010,,5,1:40
overall,GC,78,assan-bazayev,29,astana-pro-team-2010,,5,1:40
overall,GC,79,manuel-quinziato,30,liquigas-doimo-2010,,5,1:40
overall,GC,80,benoit-vaugrenard,28,francaise-des-jeux-2010,,5,1:40
overall,GC,81,rigoberto-uran,23,caisse-d-epargne-2010,,5,1:40
overall,GC,82,franco-pellizotti,32,liquigas-doimo-2010,,5,1:49
overall,GC,83,stefano-garzelli,36,acqua-sapone-2010,,5,1:49
overall,GC,84,dimitri-champion,26,ag2r-la-mondiale-2010,,5,1:54
overall,GC,85,francesco-failli,26,acqua-sapone-2010,,5,3:04
overall,GC,86,roman-kreuziger,23,liquigas-doimo-2010,,5,3:13
overall,GC,87,vasil-kiryienka,28,caisse-d-epargne-2010,,5,3:13
overall,GC,88,steve-chainel,26,bbox-bouygues-telecom-2010,,5,5:29
overall,GC,89,mark-cavendish,24,team-htc-columbia-2010,,5,6:12
overall,GC,90,mirko-selvaggi,25,astana-pro-team-2010,,5,6:12
overall,GC,91,giovanni-visconti,27,isd-neri-2010,,5,6:12
overall,GC,92,gregory-rast,30,radioshack-2010,,5,6:12
overall,GC,93,tom-leezer,24,rabobank-proteam-2010,,5,6:12
overall,GC,94,lars-boom,24,rabobank-proteam-2010,,5,6:12
overall,GC,95,maarten-tjallingii,32,rabobank-proteam-2010,,5,6:12
overall,GC,96,gregory-henderson,33,sky-procycling-2010,,5,6:12
overall,GC,97,brett-lancaster,30,cervelo-test-team-2010,,5,6:12
overall,GC,98,johan-vansummeren,29,team-garmin-transitions-2010,,5,6:12
overall,GC,99,chris-sutton,25,sky-procycling-2010,,5,6:12
overall,GC,100,cameron-wurf,26,androni-giocattoli-serramenti-pvc-diquigiovanni-2010,,5,6:12
overall,GC,101,jurgen-roelandts,24,omega-pharma-lotto-2010,,5,6:12
overall,GC,102,frederic-guesdon,38,francaise-des-jeux-2010,,5,6:12
overall,GC,103,mickael-delage,24,omega-pharma-lotto-2010,,5,6:12
overall,GC,104,anders-lund-1,25,saxo-bank-2010,,5,6:12
overall,GC,105,david-millar,33,team-garmin-transitions-2010,,5,6:12
overall,GC,106,edvald-boasson-hagen,22,sky-procycling-2010,,5,6:12
overall,GC,107,marco-velo,36,quickstep-innergetic-2010,,5,6:12
overall,GC,108,xabier-zandio,33,caisse-d-epargne-2010,,5,6:12
overall,GC,109,sebastien-turgot,25,bbox-bouygues-telecom-2010,,5,10:07
overall,GC,110,blel-kadri,23,ag2r-la-mondiale-2010,,5,10:07
overall,GC,111,luca-mazzanti,36,team-katusha-2010,,5,10:07
overall,GC,112,daryl-impey,25,radioshack-2010,,5,10:07
overall,GC,113,fumiyuki-beppu,26,radioshack-2010,,5,10:07
overall,GC,114,michael-schar,23,bmc-racing-team-2010,,5,10:07
overall,GC,115,peter-wrolich,35,milram-2010,,5,10:07
overall,GC,116,alan-marangoni,25,colnago-csf-inox-2010,,5,10:07
overall,GC,117,marco-frapporti,24,colnago-csf-inox-2010,,5,10:07
overall,GC,118,vladimir-efimkin,28,ag2r-la-mondiale-2010,,5,10:07
overall,GC,119,mathieu-claude,27,bbox-bouygues-telecom-2010,,5,10:07
overall,GC,120,stuart-o-grady,36,saxo-bank-2010,,5,10:07
overall,GC,121,lars-ytting-bak,30,team-htc-columbia-2010,,5,10:07
overall,GC,122,matthew-wilson,32,team-garmin-transitions-2010,,5,10:07
overall,GC,123,paul-voss,23,milram-2010,,5,10:07
overall,GC,124,danilo-hondo,36,lampre-farnese-vini-2010,,5,10:07
overall,GC,125,staf-scheirlinckx,31,omega-pharma-lotto-2010,,5,10:07
overall,GC,126,allan-davis,29,astana-pro-team-2010,,5,10:07
overall,GC,127,frank-hoj-christensen,37,saxo-bank-2010,,5,10:07
overall,GC,128,gustav-larsson,29,saxo-bank-2010,,5,10:07
overall,GC,129,mathew-hayman,31,sky-procycling-2010,,5,10:07
overall,GC,130,dmytro-grabovskyy,24,isd-neri-2010,,5,10:07
overall,GC,131,paolo-longo-borghini,29,isd-neri-2010,,5,10:07
overall,GC,132,aristide-ratti,27,carmiooro-ngc-2010,,5,10:07
overall,GC,133,jure-kocjan,25,carmiooro-ngc-2010,,5,10:07
overall,GC,134,vladimir-miholjevic,36,acqua-sapone-2010,,5,10:07
overall,GC,135,alessandro-fantini-1,24,acqua-sapone-2010,,5,10:07
overall,GC,136,pablo-urtasun,29,euskaltel-euskadi-2010,,5,10:07
overall,GC,137,jorge-azanza,27,euskaltel-euskadi-2010,,5,10:07
overall,GC,138,laurent-beuret,23,carmiooro-ngc-2010,,5,10:07
overall,GC,139,rubens-bertogliati,30,androni-giocattoli-serramenti-pvc-diquigiovanni-2010,,5,10:07
overall,GC,140,eric-berthou,30,carmiooro-ngc-2010,,5,10:07
overall,GC,141,luke-roberts-1,33,milram-2010,,5,10:18
overall,GC,142,jeremy-hunt,36,cervelo-test-team-2010,,5,14:24
overall,GC,143,olivier-bonnaire,27,francaise-des-jeux-2010,,5,14:24
overall,GC,144,alessandro-donati,30,acqua-sapone-2010,,5,14:24
overall,GC,145,valeriy-dmitriyev,25,astana-pro-team-2010,,5,17:17
overall,GC,146,danilo-wyss,24,bmc-racing-team-2010,,5,17:17
overall,GC,147,roy-sentjens,29,milram-2010,,5,17:17
overall,GC,148,valerio-agnoli,25,liquigas-doimo-2010,,5,17:17
overall,GC,149,yauheni-hutarovich,26,francaise-des-jeux-2010,,5,17:17
overall,GC,150,diego-caccia,28,isd-neri-2010,,5,17:17
overall,GC,151,daniele-ratto,20,carmiooro-ngc-2010,,5,17:17
overall,GC,152,maxime-bouet,23,ag2r-la-mondiale-2010,,5,17:17
overall,GC,153,fabrice-piemontesi,26,androni-giocattoli-serramenti-pvc-diquigiovanni-2010,,5,17:17
overall,GC,DNF,sergey-renev,25,astana-pro-team-2010,,,-
overall,GC,DNF,mikhail-ignatiev,24,team-katusha-2010,,,-
overall,GC,DNF,roger-hammond,36,cervelo-test-team-2010,,,-
overall,GC,DNF,julian-dean,35,team-garmin-transitions-2010,,,-
overall,GC,DNF,peter-velits,25,team-htc-columbia-2010,,,-
overall,GC,DNF,sebastian-lang,30,omega-pharma-lotto-2010,,,-
overall,GC,DNF,jeff-louder,32,bmc-racing-team-2010,,,-
overall,GC,DNF,michiel-elijzen,27,omega-pharma-lotto-2010,,,-
overall,GC,DNF,carlo-scognamiglio,26,isd-neri-2010,,,-
overall,GC,DNF,damien-gaudin,23,bbox-bouygues-telecom-2010,,,-
overall,GC,DNF,damiano-margutti,24,androni-giocattoli-serramenti-pvc-diquigiovanni-2010,,,-
overall,GC,DNF,marco-bandiera,25,team-katusha-2010,,,-
overall,GC,DNF,raffaele-ferrara,33,carmiooro-ngc-2010,,,-
overall,GC,DNF,amets-txurruka,27,euskaltel-euskadi-2010,,,-
overall,GC,DNF,maxime-monfort,27,team-htc-columbia-2010,,,-
overall,GC,DNF,simone-stortoni,24,colnago-csf-inox-2010,,,-
overall,GC,DNF,michael-albasini,29,team-htc-columbia-2010,,,-
overall,GC,DNF,andy-schleck,24,saxo-bank-2010,,,-
overall,GC,DNF,martijn-maaskant,26,team-garmin-transitions-2010,,,-
overall,GC,DNF,manuel-belletti,24,colnago-csf-inox-2010,,,-
overall,GC,DNF,alexander-efimkin,28,ag2r-la-mondiale-2010,,,-
overall,GC,DNF,ian-stannard,22,sky-procycling-2010,,,-
overall,GC,DNF,arnaud-coyot,29,caisse-d-epargne-2010,,,-
overall,GC,DNF,koldo-fernandez,28,euskaltel-euskadi-2010,,,-
overall,GC,DNF,baden-cooke,31,saxo-bank-2010,,,-
overall,GC,DNF,matthew-goss,23,team-htc-columbia-2010,,,-
overall,GC,DNF,federico-canuti,24,colnago-csf-inox-2010,,,-
overall,GC,DNF,tomas-vaitkus,28,radioshack-2010,,,-
overall,GC,DNF,svein-tuft,32,team-garmin-transitions-2010,,,-
overall,GC,DNF,mattia-gavazzi,26,colnago-csf-inox-2010,,,-
overall,GC,DNF,massimo-codol,37,acqua-sapone-2010,,,-
overall,GC,DNF,maarten-wynants,27,quickstep-innergetic-2010,,,-
overall,GC,DNF,marzio-bruseghin,35,caisse-d-epargne-2010,,,-
overall,GC,DNF,fabio-sabatini,25,liquigas-doimo-2010,,,-
overall,GC,DNF,mauro-da-dalto,28,lampre-farnese-vini-2010,,,-
overall,GC,DNF,said-haddou,27,bbox-bouygues-telecom-2010,,,-
overall,GC,DNF,yukiya-arashiro,25,bbox-bouygues-telecom-2010,,,-
overall,GC,DNF,kim-kirchen,31,team-katusha-2010,,,-
overall,GC,DNF,murilo-antonio-fischer,30,team-garmin-transitions-2010,,,-
overall,GC,DNF,dominique-rollin,27,cervelo-test-team-2010,,,-
overall,GC,DNF,dario-andriotto,37,acqua-sapone-2010,,,-
overall,GC,DNF,carlos-barredo,28,quickstep-innergetic-2010,,,-
overall,GC,DNF,brent-bookwalter,26,bmc-racing-team-2010,,,-
overall,GC,DNF,wilfried-cretskens,33,omega-pharma-lotto-2010,,,-
overall,GC,DNF,bartosz-huzarski,29,isd-neri-2010,,,-
overall,GC,DNF,alexandre-pichot,27,bbox-bouygues-telecom-2010,,,-
