stage,ranking,Rnk,Rider,Age,Team,Pnt,Time
overall,GC,1,erik-zabel,30,team-telekom-2001,275,7:23:13
overall,GC,2,mario-cipollini,34,saeco-2001,200,0:00
overall,GC,3,romans-vainsteins,28,domo-farm-frites-2001,150,0:00
overall,GC,4,biagio-conte,32,saeco-2001,120,0:00
overall,GC,5,paolo-bettini,26,mapei-quickstep-2001,100,0:00
overall,GC,6,gabriele-colombo,28,cantina-tollo-acqua-e-sapone-2001,90,0:00
overall,GC,7,gabriele-balducci,25,tacconi-sport-vini-caldirola-2001,80,0:00
overall,GC,8,markus-zberg,26,rabobank-proteam-2001,70,0:00
overall,GC,9,george-hincapie,27,us-postal-service-2001,60,0:00
overall,GC,10,rolf-sorensen,35,csc-proteam-tiscali-2001,50,0:00
overall,GC,11,michele-bartoli,30,fassa-bortolo-2001,46,0:00
overall,GC,12,guido-trenti,28,cantina-tollo-acqua-e-sapone-2001,42,0:00
overall,GC,13,peter-van-petegem,31,mercury-viatel-2001,38,0:00
overall,GC,14,gian-matteo-fagnini,30,team-telekom-2001,34,0:00
overall,GC,15,andrej-hauptman,25,tacconi-sport-vini-caldirola-2001,30,0:00
overall,GC,16,mirko-celestino,28,saeco-2001,28,0:00
overall,GC,17,dario-pieri,25,saeco-2001,26,0:00
overall,GC,18,mario-aerts,26,lotto-adecco-2001,24,0:00
overall,GC,19,jo-planckaert,30,cofidis-2001,22,0:00
overall,GC,20,christian-vande-velde,24,us-postal-service-2001,20,0:39
overall,GC,21,erik-dekker,30,rabobank-proteam-2001,19,0:50
overall,GC,22,fabio-malberti,24,liquigas-pata-2001,18,0:50
overall,GC,23,francesco-casagrande,30,fassa-bortolo-2001,17,0:50
overall,GC,24,marco-velo,27,mercatone-uno-stream-tv-2001,16,0:50
overall,GC,25,maximilian-sciandri,34,lampre-daikin-2001,15,0:50
overall,GC,26,bo-hamburger,30,csc-proteam-tiscali-2001,14,0:50
overall,GC,27,andrei-kivilev,27,cofidis-2001,13,0:50
overall,GC,28,giuliano-figueras,25,panaria-fiordo-2001,12,0:50
overall,GC,29,raimondas-rumsas-1,29,fassa-bortolo-2001,11,0:50
overall,GC,30,bobby-julich,29,credit-agricole-2001,10,1:01
overall,GC,31,alexandre-vinokourov,27,team-telekom-2001,9,1:01
overall,GC,32,cristian-gasperoni,30,cantina-tollo-acqua-e-sapone-2001,8,1:01
overall,GC,33,fabiano-fontanelli,35,mercatone-uno-stream-tv-2001,7,1:01
overall,GC,34,philippe-gaumont,28,cofidis-2001,6,1:01
overall,GC,35,nico-mattan,29,cofidis-2001,5,1:01
overall,GC,36,roberto-petito,30,fassa-bortolo-2001,5,1:01
overall,GC,37,marco-serpellini,28,lampre-daikin-2001,5,1:01
overall,GC,38,mikel-pradera,26,o.n.c.e.-eroski-2001,5,1:01
overall,GC,39,peter-farazijn,32,cofidis-2001,5,1:01
overall,GC,40,oscar-camenzind,29,lampre-daikin-2001,5,1:01
overall,GC,41,andrei-tchmil,38,lotto-adecco-2001,5,1:08
overall,GC,42,andreas-klier,25,team-telekom-2001,5,1:15
overall,GC,43,fabrizio-guidi,28,mercury-viatel-2001,5,1:15
overall,GC,44,fabio-sacchi,26,saeco-2001,5,1:37
overall,GC,45,jan-svorada-1,32,lampre-daikin-2001,5,1:43
overall,GC,46,marco-zanotti-1,27,liquigas-pata-2001,5,1:43
overall,GC,47,matthew-white,27,us-postal-service-2001,5,1:43
overall,GC,48,thor-hushovd,23,credit-agricole-2001,5,1:43
overall,GC,49,paolo-bossoni,24,tacconi-sport-vini-caldirola-2001,5,1:43
overall,GC,50,mauro-radaelli,33,tacconi-sport-vini-caldirola-2001,5,1:43
overall,GC,51,denis-zanette,31,liquigas-pata-2001,5,1:43
overall,GC,52,juan-carlos-dominguez,29,linda-mccartney-jacob-s-creek-jaguar-2001,5,1:43
overall,GC,53,uros-murn,26,mobilvetta-design-formaggi-trentini-2001,5,1:43
overall,GC,54,beat-zberg,29,rabobank-proteam-2001,5,1:43
overall,GC,55,stuart-o-grady,27,credit-agricole-2001,5,1:43
overall,GC,56,mariano-piccoli,30,lampre-daikin-2001,5,1:43
overall,GC,57,cedric-vasseur,30,us-postal-service-2001,5,1:43
overall,GC,58,gianluca-bortolami,32,tacconi-sport-vini-caldirola-2001,5,1:43
overall,GC,59,christophe-brandt,23,lotto-adecco-2001,5,1:43
overall,GC,60,mikel-artetxe,24,euskaltel-euskadi-2001,5,1:43
overall,GC,61,michael-blaudzun,27,csc-proteam-tiscali-2001,5,1:43
overall,GC,62,benoit-joachim,25,us-postal-service-2001,5,1:43
overall,GC,63,nathan-o-neill,26,panaria-fiordo-2001,5,1:43
overall,GC,64,mauro-gianetti,37,team-coast-2001,5,1:43
overall,GC,65,yauheni-seniushkin,23,panaria-fiordo-2001,5,1:43
overall,GC,66,dmitriy-fofonov,24,cofidis-2001,5,1:43
overall,GC,67,filippo-simeoni,29,cantina-tollo-acqua-e-sapone-2001,5,1:43
overall,GC,68,jose-luis-arrieta,29,ibanesto.com-2001,5,1:43
overall,GC,69,frank-hoj-christensen,28,team-coast-2001,5,1:43
overall,GC,70,steffen-wesemann,30,team-telekom-2001,5,1:43
overall,GC,71,igor-flores,27,euskaltel-euskadi-2001,5,1:43
overall,GC,72,daniele-contrini,26,liquigas-pata-2001,5,1:43
overall,GC,73,rolf-huser,29,team-coast-2001,5,1:43
overall,GC,74,massimiliano-lelli,33,cofidis-2001,5,1:43
overall,GC,75,jens-voigt,29,credit-agricole-2001,5,1:43
overall,GC,76,aitor-gonzalez-jimenez,26,kelme-costa-blanca-2001,5,1:43
overall,GC,77,francisco-cabello,31,kelme-costa-blanca-2001,5,1:43
overall,GC,78,christopher-jenner,26,credit-agricole-2001,5,1:43
overall,GC,79,massimo-giunti,26,cantina-tollo-acqua-e-sapone-2001,5,1:43
overall,GC,80,johan-museeuw,35,domo-farm-frites-2001,5,1:43
overall,GC,81,jan-schaffrath,29,team-telekom-2001,5,1:43
overall,GC,82,inigo-chaurreau-bernardez,27,euskaltel-euskadi-2001,5,1:43
overall,GC,83,ivan-gutierrez,22,o.n.c.e.-eroski-2001,5,1:43
overall,GC,84,paolo-lanfranchi,32,mapei-quickstep-2001,5,1:43
overall,GC,85,iban-mayo,23,euskaltel-euskadi-2001,5,1:43
overall,GC,86,alberto-elli,37,team-telekom-2001,5,1:43
overall,GC,87,abraham-olano-manzano,31,o.n.c.e.-eroski-2001,5,1:43
overall,GC,88,andrea-tafi,34,mapei-quickstep-2001,5,1:43
overall,GC,89,marco-pantani,31,mercatone-uno-stream-tv-2001,5,1:43
overall,GC,90,antonio-varriale,27,panaria-fiordo-2001,5,1:43
overall,GC,91,paolo-fornaciari,30,mapei-quickstep-2001,5,1:43
overall,GC,92,chris-peers,31,cofidis-2001,5,1:43
overall,GC,93,marc-lotz,27,rabobank-proteam-2001,5,1:43
overall,GC,94,jose-bento-carvalho-de-azevedo,27,o.n.c.e.-eroski-2001,5,1:43
overall,GC,95,gennady-mikhaylov,27,lotto-adecco-2001,5,1:43
overall,GC,96,alex-zulle2,32,team-coast-2001,5,1:43
overall,GC,97,niki-aebersold,28,team-coast-2001,5,1:43
overall,GC,98,viatcheslav-ekimov,35,us-postal-service-2001,5,1:43
overall,GC,99,txema-del-olmo-zendegi,27,euskaltel-euskadi-2001,5,1:43
overall,GC,100,sergio-barbero,32,lampre-daikin-2001,5,1:43
overall,GC,101,unai-etxebarria-arana,28,euskaltel-euskadi-2001,5,1:43
overall,GC,102,thierry-marichal,27,lotto-adecco-2001,5,1:43
overall,GC,103,marzio-bruseghin,26,ibanesto.com-2001,5,1:43
overall,GC,104,paolo-savoldelli,27,saeco-2001,5,1:43
overall,GC,105,enrico-cassani,29,domo-farm-frites-2001,5,1:43
overall,GC,106,mario-scirea,36,saeco-2001,5,1:43
overall,GC,107,pavel-padrnos,30,saeco-2001,5,1:43
overall,GC,108,luca-scinto,33,mapei-quickstep-2001,5,1:43
overall,GC,109,matteo-tosatto,26,fassa-bortolo-2001,5,1:43
overall,GC,110,fred-rodriguez,27,domo-farm-frites-2001,5,1:43
overall,GC,111,volodymyr-gustov,24,fassa-bortolo-2001,5,1:43
overall,GC,112,fabio-baldato,32,fassa-bortolo-2001,5,1:43
overall,GC,113,serguei-yakovlev,24,cantina-tollo-acqua-e-sapone-2001,5,1:43
overall,GC,114,tristan-hoffman,31,csc-proteam-tiscali-2001,5,1:43
overall,GC,115,timothy-jones,25,mobilvetta-design-formaggi-trentini-2001,5,1:43
overall,GC,116,bingen-fernandez-bustinza,28,euskaltel-euskadi-2001,5,1:43
overall,GC,117,michele-coppolillo,33,panaria-fiordo-2001,5,1:43
overall,GC,118,vladimir-duma,29,panaria-fiordo-2001,5,1:43
overall,GC,119,danilo-di-luca,25,cantina-tollo-acqua-e-sapone-2001,5,1:43
overall,GC,120,dmitri-konychev,35,fassa-bortolo-2001,5,2:18
overall,GC,121,stefano-zanini,32,mapei-quickstep-2001,5,3:38
overall,GC,122,ellis-rastelli,26,liquigas-pata-2001,5,4:50
overall,GC,123,mikel-zarrabeitia,30,o.n.c.e.-eroski-2001,5,4:50
overall,GC,124,nicolaj-bo-larsen,29,csc-proteam-tiscali-2001,5,5:00
overall,GC,125,cristian-moreni,28,mercatone-uno-stream-tv-2001,5,5:17
overall,GC,126,alberto-ongarato,25,mobilvetta-design-formaggi-trentini-2001,5,5:17
overall,GC,127,devis-miorin,25,mobilvetta-design-formaggi-trentini-2001,5,5:17
overall,GC,128,igor-astarloa-ascasibar,24,mercatone-uno-stream-tv-2001,5,5:17
overall,GC,129,gian-mario-ortenzi,24,mercatone-uno-stream-tv-2001,5,5:17
overall,GC,130,sergiy-matveyev,26,panaria-fiordo-2001,5,5:40
overall,GC,131,tom-leaper,25,panaria-fiordo-2001,5,5:40
overall,GC,132,kai-hundertmarck,31,team-telekom-2001,5,6:34
overall,GC,133,maarten-den-bakker,32,rabobank-proteam-2001,5,7:12
overall,GC,134,jan-boven,29,rabobank-proteam-2001,5,7:12
overall,GC,135,nicola-loda,29,fassa-bortolo-2001,5,7:12
overall,GC,136,steven-de-jongh,27,rabobank-proteam-2001,5,7:12
overall,GC,137,fabrice-gougot,29,credit-agricole-2001,5,7:12
overall,GC,138,wilfried-peeters,36,domo-farm-frites-2001,5,7:12
overall,GC,139,marco-milesi,31,domo-farm-frites-2001,5,7:12
overall,GC,140,davide-bramati,32,mapei-quickstep-2001,5,7:12
overall,GC,141,paul-van-hyfte,29,lotto-adecco-2001,5,7:12
overall,GC,142,piotr-wadecki,28,domo-farm-frites-2001,5,7:12
overall,GC,143,koen-beeckman,27,csc-proteam-tiscali-2001,5,7:12
overall,GC,144,roland-meier,33,team-coast-2001,5,7:12
overall,GC,145,jaime-javier-hernandez,29,festina-2001,5,7:12
overall,GC,146,juan-miguel-cuenca,23,kelme-costa-blanca-2001,5,7:12
overall,GC,147,david-etxebarria,27,euskaltel-euskadi-2001,5,7:12
overall,GC,148,fabian-de-waele,25,lotto-adecco-2001,5,7:12
overall,GC,149,ermanno-brignoli,31,mercatone-uno-stream-tv-2001,5,7:12
overall,GC,150,jorg-jaksche,24,o.n.c.e.-eroski-2001,5,7:12
overall,GC,151,steffen-kjaergaard,27,us-postal-service-2001,5,7:12
overall,GC,152,pavel-tonkov,32,mercury-viatel-2001,5,7:12
overall,GC,153,domenico-gualdi,26,mobilvetta-design-formaggi-trentini-2001,5,8:53
overall,GC,154,geert-van-bondt,30,mercury-viatel-2001,5,8:53
overall,GC,155,mauro-gerosa,26,tacconi-sport-vini-caldirola-2001,5,8:53
overall,GC,156,zoran-klemencic,24,tacconi-sport-vini-caldirola-2001,5,9:42
overall,GC,157,javier-pascual-llorente,29,kelme-costa-blanca-2001,5,9:42
overall,GC,158,hendrik-van-dyck,27,lotto-adecco-2001,5,9:42
overall,GC,159,gianpaolo-mondini,28,mercatone-uno-stream-tv-2001,5,9:42
overall,GC,160,floyd-landis,25,mercury-viatel-2001,5,9:42
overall,GC,161,alberto-benito,26,ibanesto.com-2001,5,9:42
overall,GC,162,federico-giabbecucci,25,cantina-tollo-acqua-e-sapone-2001,5,9:42
overall,GC,163,iban-sastre-estevez,23,festina-2001,5,9:42
overall,GC,164,rodolfo-massi,35,mobilvetta-design-formaggi-trentini-2001,5,9:42
overall,GC,165,mirko-marini,26,liquigas-pata-2001,5,9:42
overall,GC,166,arvis-piziks,31,csc-proteam-tiscali-2001,5,9:42
overall,GC,167,cristian-salvato,29,liquigas-pata-2001,5,9:42
overall,GC,168,ludo-dierckxsens,36,lampre-daikin-2001,5,12:31
overall,GC,169,toni-tauler,26,kelme-costa-blanca-2001,5,12:31
overall,GC,170,servais-knaven,30,domo-farm-frites-2001,5,12:31
overall,GC,171,lars-michaelsen,32,team-coast-2001,5,12:31
overall,GC,172,jon-odriozola,30,ibanesto.com-2001,5,12:31
overall,GC,173,rafael-casero-moreno,24,festina-2001,5,12:31
overall,GC,174,henk-vogels,27,mercury-viatel-2001,5,12:31
overall,GC,175,david-clinger,23,festina-2001,5,12:31
overall,GC,176,raphael-schweda,24,team-coast-2001,5,14:24
overall,GC,177,raivis-belohvosciks,25,lampre-daikin-2001,5,15:39
overall,GC,178,martin-rittsel,29,csc-proteam-tiscali-2001,5,15:39
overall,GC,179,david-latasa-lasa,27,ibanesto.com-2001,5,15:39
overall,GC,180,francisco-leon,28,kelme-costa-blanca-2001,5,15:39
overall,GC,181,milan-kadlec,26,mobilvetta-design-formaggi-trentini-2001,5,15:39
overall,GC,DNF,nicola-minali,31,tacconi-sport-vini-caldirola-2001,,-
overall,GC,DNF,rafael-diaz,28,o.n.c.e.-eroski-2001,,-
overall,GC,DNF,luis-perez-rodriguez,26,festina-2001,,-
overall,GC,DNF,sven-teutenberg,28,festina-2001,,-
overall,GC,DNF,jens-voigt,29,credit-agricole-2001,,-
overall,GC,DNF,jose-enrique-gutierrez-cataluna,26,kelme-costa-blanca-2001,,-
overall,GC,DNF,carlos-garcia-quesada,22,kelme-costa-blanca-2001,,-
overall,GC,DNF,marc-wauters,32,rabobank-proteam-2001,,-
overall,GC,DNF,leon-van-bon,29,mercury-viatel-2001,,-
overall,GC,DNF,jose-luis-rebollo,28,festina-2001,,-
overall,GC,DNF,andrei-teteriouk,33,mercury-viatel-2001,,-
overall,GC,DNF,moreno-di-biase,25,mobilvetta-design-formaggi-trentini-2001,,-
overall,GC,DNF,aitor-osa,27,ibanesto.com-2001,,-
overall,GC,DNF,carlos-sastre,25,o.n.c.e.-eroski-2001,,-
overall,GC,DNF,francisco-mancebo,25,ibanesto.com-2001,,-
overall,GC,DNF,david-plaza-romero,30,festina-2001,,-
overall,GC,DNF,stephane-barthe,28,us-postal-service-2001,,-
overall,GC,DNF,davide-rebellin,29,liquigas-pata-2001,,-
