stage,ranking,Rnk,Rider,Age,Team,Pnt,Time
overall,GC,1,mario-cipollini,35,acqua-sapone-2002,275,6:39:30
overall,GC,2,fred-rodriguez,28,domo-farm-frites-2002,200,0:00
overall,GC,3,markus-zberg,27,rabobank-proteam-2002,150,0:00
overall,GC,4,jo-planckaert,31,cofidis-2002,120,0:00
overall,GC,5,oscar-freire,26,mapei-quickstep-2002,100,0:00
overall,GC,6,tomas-konecny,28,domo-farm-frites-2002,90,0:00
overall,GC,7,andrei-tchmil,39,lotto-adecco-2002,80,0:00
overall,GC,8,jan-svorada-1,33,lampre-daikin-2002,70,0:00
overall,GC,9,paolo-bossoni,25,tacconi-sport-2002,60,0:00
overall,GC,10,mario-manzoni,32,index-alexia-alluminio-2002,50,0:00
overall,GC,11,ruggero-marzoli,25,mobilvetta-formaggi-trentini-2002,46,0:00
overall,GC,12,paolo-lanfranchi,33,index-alexia-alluminio-2002,42,0:00
overall,GC,13,andrej-hauptman,26,tacconi-sport-2002,38,0:00
overall,GC,14,mauro-zinetti,26,index-alexia-alluminio-2002,34,0:00
overall,GC,15,peter-van-petegem,32,lotto-adecco-2002,30,0:00
overall,GC,16,george-hincapie,28,us-postal-service-2002,28,0:00
overall,GC,17,alessandro-petacchi,28,fassa-bortolo-2002,26,0:00
overall,GC,18,giuseppe-di-grande,28,index-alexia-alluminio-2002,24,0:00
overall,GC,19,marc-lotz,28,rabobank-proteam-2002,22,0:00
overall,GC,20,samuel-sanchez,24,euskaltel-euskadi-2002,20,0:00
overall,GC,21,xavier-florencio,22,o.n.c.e.-eroski-2002,19,0:00
overall,GC,22,igor-flores,28,euskaltel-euskadi-2002,18,0:00
overall,GC,23,dario-pieri,26,alessio-2002,17,0:00
overall,GC,24,enrico-cassani,30,domo-farm-frites-2002,16,0:00
overall,GC,25,ivan-gutierrez,23,ibanesto.com-2002,15,0:00
overall,GC,26,alexandre-shefer,30,alessio-2002,14,0:00
overall,GC,27,davide-rebellin,30,gerolsteiner-2002,13,0:00
overall,GC,28,jakob-piil,29,csc-proteam-tiscali-2002,12,0:00
overall,GC,29,eddy-mazzoleni,28,tacconi-sport-2002,11,0:00
overall,GC,30,gabriele-missaglia,31,lampre-daikin-2002,10,0:00
overall,GC,31,giovanni-lombardi,32,acqua-sapone-2002,9,0:00
overall,GC,32,paolo-savoldelli,28,index-alexia-alluminio-2002,8,0:00
overall,GC,33,beat-zberg,30,rabobank-proteam-2002,7,0:00
overall,GC,34,juan-antonio-flecha,24,ibanesto.com-2002,6,0:00
overall,GC,35,mirko-celestino,29,saeco-longoni-sport-2002,5,0:00
overall,GC,36,franco-pellizotti,24,alessio-2002,5,0:00
overall,GC,37,miguel-angel-martin-perdiguero,29,acqua-sapone-2002,5,0:00
overall,GC,38,maximilian-sciandri,35,lampre-daikin-2002,5,0:00
overall,GC,39,unai-etxebarria-arana,29,euskaltel-euskadi-2002,5,0:00
overall,GC,40,massimiliano-gentili,30,acqua-sapone-2002,5,0:00
overall,GC,41,roberto-petito,31,fassa-bortolo-2002,5,0:00
overall,GC,42,alexandre-vinokourov,28,team-telekom-2002,5,0:00
overall,GC,43,moreno-di-biase,26,mobilvetta-formaggi-trentini-2002,5,0:00
overall,GC,44,lance-armstrong,30,us-postal-service-2002,5,0:00
overall,GC,45,michele-bartoli,31,fassa-bortolo-2002,5,0:07
overall,GC,46,ivan-basso,24,fassa-bortolo-2002,5,0:07
overall,GC,47,guido-trenti,29,acqua-sapone-2002,5,0:10
overall,GC,48,gennady-mikhaylov,28,lotto-adecco-2002,5,0:10
overall,GC,49,giuliano-figueras,26,panaria-fiordo-2002,5,0:14
overall,GC,50,paolo-bettini,27,mapei-quickstep-2002,5,0:16
overall,GC,51,raphael-schweda,25,team-coast-2002,5,0:39
overall,GC,52,peter-wrolich,27,gerolsteiner-2002,5,1:07
overall,GC,53,fabio-baldato,33,fassa-bortolo-2002,5,1:10
overall,GC,54,bekim-leif-christensen,28,team-coast-2002,5,1:10
overall,GC,55,uros-murn,27,mobilvetta-formaggi-trentini-2002,5,1:10
overall,GC,56,gianni-faresin,36,gerolsteiner-2002,5,1:10
overall,GC,57,richard-virenque,32,domo-farm-frites-2002,5,1:10
overall,GC,58,mikel-artetxe,25,euskaltel-euskadi-2002,5,1:10
overall,GC,59,guido-trentin,26,cofidis-2002,5,1:13
overall,GC,60,alessandro-cortinovis,24,lampre-daikin-2002,5,1:16
overall,GC,61,andrei-kivilev,28,cofidis-2002,5,1:16
overall,GC,62,antonio-rizzi,23,mobilvetta-formaggi-trentini-2002,5,1:16
overall,GC,63,andrea-peron-1,30,csc-proteam-tiscali-2002,5,1:16
overall,GC,64,luca-paolini,25,mapei-quickstep-2002,5,1:16
overall,GC,65,niki-aebersold,29,team-coast-2002,5,1:40
overall,GC,66,mauro-radaelli,34,tacconi-sport-2002,5,2:52
overall,GC,67,benoit-joachim,26,us-postal-service-2002,5,3:16
overall,GC,68,massimiliano-mori,28,mercatone-uno-2002,5,3:16
overall,GC,69,nicolas-jalabert,28,csc-proteam-tiscali-2002,5,3:38
overall,GC,70,erik-zabel,31,team-telekom-2002,5,3:38
overall,GC,71,steffen-wesemann,31,team-telekom-2002,5,3:38
overall,GC,72,stefano-zanini,33,mapei-quickstep-2002,5,3:38
overall,GC,73,thor-hushovd,24,credit-agricole-2002,5,3:38
overall,GC,74,constantino-zaballa,23,kelme-costa-blanca-2002,5,3:38
overall,GC,75,tyler-hamilton,31,csc-proteam-tiscali-2002,5,3:38
overall,GC,76,marco-pantani,32,mercatone-uno-2002,5,3:38
overall,GC,77,luca-mazzanti,28,mercatone-uno-2002,5,3:38
overall,GC,78,wilfried-cretskens,25,domo-farm-frites-2002,5,3:38
overall,GC,79,alessandro-brendolin,24,mobilvetta-formaggi-trentini-2002,5,3:38
overall,GC,80,lars-michaelsen,33,team-coast-2002,5,3:38
overall,GC,81,marco-milesi,32,domo-farm-frites-2002,5,3:38
overall,GC,82,dmitri-konychev,36,fassa-bortolo-2002,5,3:38
overall,GC,83,ludo-dierckxsens,37,lampre-daikin-2002,5,3:38
overall,GC,84,andrea-ferrigato,32,alessio-2002,5,3:38
overall,GC,85,gorazd-stangelj,29,fassa-bortolo-2002,5,3:38
overall,GC,86,igor-gonzalez-de-galdeano,28,o.n.c.e.-eroski-2002,5,3:38
overall,GC,87,ruslan-ivanov,28,alessio-2002,5,3:38
overall,GC,88,abraham-olano-manzano,32,o.n.c.e.-eroski-2002,5,3:38
overall,GC,89,jan-hruska,27,o.n.c.e.-eroski-2002,5,3:38
overall,GC,90,giampaolo-caruso,21,o.n.c.e.-eroski-2002,5,3:38
overall,GC,91,robert-hunter,24,mapei-quickstep-2002,5,3:38
overall,GC,92,massimiliano-lelli,34,cofidis-2002,5,3:38
overall,GC,93,frederic-bessy,30,credit-agricole-2002,5,3:38
overall,GC,94,jorg-jaksche,25,o.n.c.e.-eroski-2002,5,3:38
overall,GC,95,christopher-jenner,27,credit-agricole-2002,5,3:38
overall,GC,96,sascha-henrix,29,team-coast-2002,5,3:38
overall,GC,97,dariusz-baranowski,29,ibanesto.com-2002,5,3:38
overall,GC,98,tomasz-brozyna,31,ibanesto.com-2002,5,3:38
overall,GC,99,zbigniew-spruch,36,lampre-daikin-2002,5,3:38
overall,GC,100,inaki-isasi-flores,24,euskaltel-euskadi-2002,5,3:38
overall,GC,101,georg-totschnig,30,gerolsteiner-2002,5,3:38
overall,GC,102,nico-mattan,30,cofidis-2002,5,3:38
overall,GC,103,peter-farazijn,33,cofidis-2002,5,3:38
overall,GC,104,dario-frigo,28,tacconi-sport-2002,5,3:38
overall,GC,105,mario-scirea,37,acqua-sapone-2002,5,3:38
overall,GC,106,gabriele-colombo,29,acqua-sapone-2002,5,3:38
overall,GC,107,robbie-mcewen,29,lotto-adecco-2002,5,3:38
overall,GC,108,davide-bramati,33,mapei-quickstep-2002,5,3:38
overall,GC,109,laurent-dufaux,32,alessio-2002,5,3:38
overall,GC,110,david-clinger,24,us-postal-service-2002,5,3:38
overall,GC,111,alberto-elli,38,index-alexia-alluminio-2002,5,3:38
overall,GC,112,bo-hamburger,31,index-alexia-alluminio-2002,5,3:38
overall,GC,113,pavel-padrnos,31,us-postal-service-2002,5,3:38
overall,GC,114,sergiy-matveyev,27,panaria-fiordo-2002,5,3:38
overall,GC,115,frank-hoj-christensen,29,team-coast-2002,5,3:38
overall,GC,116,jose-enrique-gutierrez-cataluna,27,kelme-costa-blanca-2002,5,3:38
overall,GC,117,cesar-solaun,31,euskaltel-euskadi-2002,5,3:38
overall,GC,118,sasa-gajicic,24,mobilvetta-formaggi-trentini-2002,5,3:38
overall,GC,119,sergei-ivanov,27,fassa-bortolo-2002,5,3:38
overall,GC,120,matthew-white,28,us-postal-service-2002,5,3:38
overall,GC,121,david-latasa-lasa,28,ibanesto.com-2002,5,3:38
overall,GC,122,inigo-cuesta,32,cofidis-2002,5,3:38
overall,GC,123,xabier-zandio,25,ibanesto.com-2002,5,3:38
overall,GC,124,vladimir-duma,30,panaria-fiordo-2002,5,4:48
overall,GC,125,rene-andrle,27,o.n.c.e.-eroski-2002,5,6:31
overall,GC,126,mederic-clain,25,cofidis-2002,5,10:45
overall,GC,127,christophe-brandt,24,lotto-adecco-2002,5,10:45
overall,GC,128,thierry-marichal,28,lotto-adecco-2002,5,10:45
overall,GC,129,francesco-secchiari,29,mercatone-uno-2002,5,11:43
overall,GC,130,alejandro-valverde,21,kelme-costa-blanca-2002,5,11:43
overall,GC,131,steve-vermaut,26,palmans-collstrop-2002,5,11:43
overall,GC,132,kurt-van-lancker,30,lotto-adecco-2002,5,11:43
overall,GC,133,danny-jonasson,27,csc-proteam-tiscali-2002,5,11:43
overall,GC,134,paul-van-hyfte,30,csc-proteam-tiscali-2002,5,11:43
overall,GC,135,bobby-julich,30,team-telekom-2002,5,11:43
overall,GC,136,eladio-jimenez,26,ibanesto.com-2002,5,11:43
overall,GC,137,karsten-kroon,26,rabobank-proteam-2002,5,11:43
overall,GC,138,angel-vicioso,24,kelme-costa-blanca-2002,5,11:43
overall,GC,139,marc-wauters,33,rabobank-proteam-2002,5,11:43
overall,GC,140,andre-korff,28,team-coast-2002,5,11:43
overall,GC,141,jan-schaffrath,30,team-telekom-2002,5,11:43
overall,GC,142,gianluca-bortolami,33,tacconi-sport-2002,5,11:43
overall,GC,143,daniele-nardello,29,mapei-quickstep-2002,5,11:43
overall,GC,144,josu-silloniz,24,euskaltel-euskadi-2002,5,11:43
overall,GC,145,pietro-zucconi,26,tacconi-sport-2002,5,11:43
overall,GC,146,rubens-bertogliati,22,lampre-daikin-2002,5,11:43
overall,GC,147,denis-bondarenko,23,mobilvetta-formaggi-trentini-2002,5,11:43
overall,GC,148,sebastien-hinault,28,credit-agricole-2002,5,12:34
overall,GC,149,enrico-degano,26,panaria-fiordo-2002,5,12:34
overall,GC,150,stefano-guerrini,23,panaria-fiordo-2002,5,12:34
overall,GC,151,domenico-gualdi,27,mobilvetta-formaggi-trentini-2002,5,12:34
overall,GC,152,riccardo-forconi,31,mercatone-uno-2002,5,12:34
overall,GC,153,nicola-minali,32,tacconi-sport-2002,5,12:34
overall,GC,154,yohann-charpenteau,23,credit-agricole-2002,5,12:34
overall,GC,155,cristian-gasperoni,31,acqua-sapone-2002,5,12:34
overall,GC,156,marco-serpellini,29,lampre-daikin-2002,5,12:34
overall,GC,157,ronny-scholz,23,gerolsteiner-2002,5,12:34
overall,GC,158,olaf-pollack,28,gerolsteiner-2002,5,12:34
overall,GC,159,ermanno-brignoli,32,mercatone-uno-2002,5,12:34
overall,GC,160,graeme-brown,22,panaria-fiordo-2002,5,12:44
overall,GC,161,mikel-zarrabeitia,31,o.n.c.e.-eroski-2002,5,12:58
overall,GC,162,igor-astarloa-ascasibar,25,saeco-longoni-sport-2002,5,13:00
overall,GC,163,alessio-galletti,33,saeco-longoni-sport-2002,5,13:16
overall,GC,164,laszlo-bodrogi,25,mapei-quickstep-2002,5,14:16
overall,GC,165,geert-van-bondt,31,csc-proteam-tiscali-2002,5,16:43
overall,GC,166,servais-knaven,31,domo-farm-frites-2002,5,17:53
overall,GC,167,jan-boven,30,rabobank-proteam-2002,5,17:53
overall,GC,168,steven-de-jongh,28,rabobank-proteam-2002,5,17:53
overall,GC,169,cristian-pepoli,24,saeco-longoni-sport-2002,5,17:53
overall,GC,170,antonio-salomone,25,index-alexia-alluminio-2002,5,17:53
overall,GC,DNF,yann-tournier,23,credit-agricole-2002,,-
overall,GC,DNF,anthony-langella,27,credit-agricole-2002,,-
overall,GC,DNF,endrio-leoni,33,alessio-2002,,-
overall,GC,DNF,fabrizio-guidi,29,team-coast-2002,,-
overall,GC,DNF,martin-hvastija,32,alessio-2002,,-
overall,GC,DNF,gianpaolo-mondini,29,us-postal-service-2002,,-
overall,GC,DNF,alessandro-spezialetti,27,saeco-longoni-sport-2002,,-
overall,GC,DNF,nicola-chesini,28,panaria-fiordo-2002,,-
overall,GC,DNF,danilo-di-luca,26,saeco-longoni-sport-2002,,-
overall,GC,DNF,floyd-landis,26,us-postal-service-2002,,-
overall,GC,DNF,biagio-conte,33,saeco-longoni-sport-2002,,-
overall,GC,DNF,kai-hundertmarck,32,team-telekom-2002,,-
overall,GC,DNF,andreas-klier,26,team-telekom-2002,,-
overall,GC,DNF,david-munoz,22,kelme-costa-blanca-2002,,-
overall,GC,DNF,rolf-aldag,33,team-telekom-2002,,-
overall,GC,DNF,joaquin-lopez,25,kelme-costa-blanca-2002,,-
overall,GC,DNF,iker-flores-galarza,25,euskaltel-euskadi-2002,,-
overall,GC,DNF,torsten-schmidt,30,gerolsteiner-2002,,-
overall,GC,DNF,ruben-plaza,22,ibanesto.com-2002,,-
overall,GC,DNF,erik-dekker,31,rabobank-proteam-2002,,-
overall,GC,DNF,saulius-ruskys,27,gerolsteiner-2002,,-
overall,GC,DNF,antonio-varriale,28,panaria-fiordo-2002,,-
overall,GC,DNF,igor-pugaci,27,saeco-longoni-sport-2002,,-
overall,GC,DNF,roberto-sgambelluri,27,mercatone-uno-2002,,-
overall,GC,DNF,laurent-jalabert,33,csc-proteam-tiscali-2002,,-
overall,GC,DNF,max-van-heeswijk,29,domo-farm-frites-2002,,-
overall,GC,DNF,gian-mario-ortenzi,25,mercatone-uno-2002,,-
