stage,ranking,Rnk,Rider,Age,Team,Pnt,Time,Time won/lost
overall,GC,1,alexandre-vinokourov,29,team-telekom-2003,250, 23:30:04,..
overall,GC,2,mikel-zarrabeitia,32,o.n.c.e.-eroski-2003,190,0:43,..
overall,GC,3,davide-rebellin,31,gerolsteiner-2003,160,0:54,..
overall,GC,4,jorg-jaksche,26,o.n.c.e.-eroski-2003,140,0:55,..
overall,GC,5,sylvain-chavanel,23,brioches-la-boulangere-2003,120,1:24,..
overall,GC,6,david-bernabeu,28,milaneza-mss-2003,110,1:28,..
overall,GC,7,claus-michael-moller,34,milaneza-mss-2003,100,1:30,..
overall,GC,8,volodymyr-gustov,26,fassa-bortolo-2003,90,1:41,..
overall,GC,9,samuel-sanchez,25,euskaltel-euskadi-2003,80,1:48,..
overall,GC,10,oscar-pereiro,25,phonak-hearing-systems-2003,70,2:04,..
overall,GC,11,gilberto-simoni,31,saeco-2003,60,2:19,..
overall,GC,12,kurt-asle-arvesen,28,team-fakta-2003,55,2:22,..
overall,GC,13,marcos-antonio-serrano,30,o.n.c.e.-eroski-2003,50,2:34,..
overall,GC,14,ivan-ramiro-parra,27,kelme-costa-blanca-2003,45,2:35,..
overall,GC,15,laurent-lefevre,26,jean-delatour-2003,40,3:33,..
overall,GC,16,kim-kirchen,24,fassa-bortolo-2003,36,4:16,..
overall,GC,17,alexandre-botcharov,28,ag2r-prevoyance-2003,32,",,",..
overall,GC,18,david-latasa-lasa,29,kelme-costa-blanca-2003,28,4:20,..
overall,GC,19,kurt-van-de-wouwer,31,quickstep-davitamon-2003,24,4:24,..
overall,GC,20,cedric-fragniere,27,credit-agricole-2003,20,4:25,..
overall,GC,21,fabian-jeker,34,milaneza-mss-2003,18,4:51,..
overall,GC,22,joaquim-rodriguez,23,o.n.c.e.-eroski-2003,16,5:10,..
overall,GC,23,oscar-camenzind,31,phonak-hearing-systems-2003,14,5:13,..
overall,GC,24,laurent-brochard,34,ag2r-prevoyance-2003,12,5:21,..
overall,GC,26,gorka-gonzalez-larranaga,25,euskaltel-euskadi-2003,9,7:33,..
overall,GC,27,didier-rous,32,brioches-la-boulangere-2003,8,10:26,..
overall,GC,28,walter-beneteau,30,brioches-la-boulangere-2003,7,10:51,..
overall,GC,29,jean-cyril-robin,33,fdjeux.com-2003,6,11:55,..
overall,GC,30,jerome-pineau,23,brioches-la-boulangere-2003,5,12:42,..
overall,GC,31,marco-velo,29,fassa-bortolo-2003,5,13:04,..
overall,GC,32,udo-bolts,36,gerolsteiner-2003,5,13:06,..
overall,GC,33,pedro-cardoso,28,milaneza-mss-2003,5,13:41,..
overall,GC,34,richard-virenque,33,quickstep-davitamon-2003,5,",,",..
overall,GC,35,santiago-perez,25,phonak-hearing-systems-2003,5,13:44,..
overall,GC,36,carlos-sastre,27,csc-proteam-2003,5,17:30,..
overall,GC,37,stephane-goubert,33,jean-delatour-2003,5,17:48,..
overall,GC,38,sebastien-joly,23,jean-delatour-2003,5,21:22,..
overall,GC,39,rui-lavarinhas,32,milaneza-mss-2003,5,21:51,..
overall,GC,40,tyler-hamilton,32,csc-proteam-2003,5,25:49,..
overall,GC,41,angel-castresana,31,o.n.c.e.-eroski-2003,5,25:57,..
overall,GC,42,jens-voigt,31,credit-agricole-2003,5,26:19,..
overall,GC,43,thomas-voeckler,23,brioches-la-boulangere-2003,5,26:32,..
overall,GC,44,ruben-diaz-de-cerio,26,euskaltel-euskadi-2003,5,26:35,..
overall,GC,45,benoit-poilvet,26,credit-agricole-2003,5,26:45,..
overall,GC,46,josu-silloniz,25,euskaltel-euskadi-2003,5,28:08,..
overall,GC,47,franck-renier,28,brioches-la-boulangere-2003,5,28:25,..
overall,GC,48,koldo-gil-perez,25,o.n.c.e.-eroski-2003,5,28:34,..
overall,GC,49,constantino-zaballa,24,kelme-costa-blanca-2003,5,29:11,..
overall,GC,50,franck-bouyer,28,brioches-la-boulangere-2003,5,29:13,..
overall,GC,51,igor-astarloa-ascasibar,26,saeco-2003,5,29:28,..
overall,GC,52,cedric-vasseur,32,cofidis-2003,5,30:32,..
overall,GC,53,benoit-joachim,27,us-postal-service-2003,5,31:55,..
overall,GC,54,sandy-casar,24,fdjeux.com-2003,5,36:57,..
overall,GC,55,fabian-cancellara,21,fassa-bortolo-2003,5,36:59,..
overall,GC,56,frederic-bessy,31,cofidis-2003,5,37:59,..
overall,GC,57,david-arroyo,23,o.n.c.e.-eroski-2003,5,38:39,..
overall,GC,58,koos-moerenhout,29,lotto-domo-2003,5,39:25,..
overall,GC,59,mikel-astarloza,23,ag2r-prevoyance-2003,5,39:42,..
overall,GC,60,nico-mattan,31,cofidis-2003,5,40:29,..
overall,GC,61,lennie-kristensen,34,csc-proteam-2003,5,40:36,..
overall,GC,62,alexandre-moos,30,phonak-hearing-systems-2003,5,44:59,..
overall,GC,63,lars-ytting-bak,23,team-fakta-2003,5,45:13,..
overall,GC,64,matthias-kessler,23,team-telekom-2003,5,45:55,..
overall,GC,65,guido-trenti,30,fassa-bortolo-2003,5,46:10,..
overall,GC,66,nicolas-jalabert,29,csc-proteam-2003,5,47:16,..
stage-7,Stage,1,david-bernabeu,28,milaneza-mss-2003,50,4:01:21,
overall,GC,67,fabrice-gougot,31,phonak-hearing-systems-2003,5,48:26,..
overall,GC,68,mikel-pradera,28,o.n.c.e.-eroski-2003,5,50:02,..
stage-7,Stage,2,fabian-jeker,34,milaneza-mss-2003,30,0:03,
stage-7,Stage,3,ivan-ramiro-parra,27,kelme-costa-blanca-2003,18,0:03,
overall,GC,69,frank-schleck,22,csc-proteam-2003,5,50:09,..
overall,GC,70,jose-alberto-martinez,27,euskaltel-euskadi-2003,5,51:11,..
stage-7,Stage,4,laurent-brochard,34,ag2r-prevoyance-2003,13,0:10,
stage-7,Stage,5,kurt-asle-arvesen,28,team-fakta-2003,10,0:11,
overall,GC,71,marius-sabaliauskas,24,saeco-2003,5,51:14,..
overall,GC,72,unai-etxebarria-arana,30,euskaltel-euskadi-2003,5,51:24,..
stage-7,Stage,6,sylvain-chavanel,23,brioches-la-boulangere-2003,7,0:11,
stage-7,Stage,7,gilberto-simoni,31,saeco-2003,4,0:11,
stage-7,Stage,8,samuel-sanchez,25,euskaltel-euskadi-2003,3,0:11,
overall,GC,73,torsten-hiekmann,22,team-telekom-2003,5,54:26,..
overall,GC,74,mederic-clain,26,cofidis-2003,5,54:57,..
overall,GC,75,manuel-calvente-corbas,26,csc-proteam-2003,5,57:05,..
stage-7,Stage,9,davide-rebellin,31,gerolsteiner-2003,2,0:11,
stage-7,Stage,10,gorka-gonzalez-larranaga,25,euskaltel-euskadi-2003,1,0:11,
stage-7,Stage,11,oscar-pereiro,25,phonak-hearing-systems-2003,,0:11,
overall,GC,76,tristan-hoffman,33,csc-proteam-2003,5,59:36,..
overall,GC,77,antonio-cruz-1,31,us-postal-service-2003,5,59:41,..
overall,GC,78,wilfried-cretskens,26,quickstep-davitamon-2003,5,1:00:42,..
stage-7,Stage,12,claus-michael-moller,34,milaneza-mss-2003,,0:11,
stage-7,Stage,13,mikel-zarrabeitia,32,o.n.c.e.-eroski-2003,,0:11,
overall,GC,79,lizuarte-martins,24,milaneza-mss-2003,5,1:02:04,..
overall,GC,80,bradley-wiggins,22,fdjeux.com-2003,5,1:04:29,..
stage-7,Stage,14,laurent-lefevre,26,jean-delatour-2003,,0:11,
stage-7,Stage,15,santiago-perez,25,phonak-hearing-systems-2003,,0:11,
overall,GC,81,christophe-oriol,30,ag2r-prevoyance-2003,5,1:04:39,..
overall,GC,82,inigo-chaurreau-bernardez,29,ag2r-prevoyance-2003,5,1:04:49,..
stage-7,Stage,16,jorg-jaksche,26,o.n.c.e.-eroski-2003,,0:11,
stage-7,Stage,17,marcos-antonio-serrano,30,o.n.c.e.-eroski-2003,,0:11,
stage-7,Stage,18,volodymyr-gustov,26,fassa-bortolo-2003,,0:11,
overall,GC,83,leon-van-bon,31,lotto-domo-2003,5,1:04:57,..
overall,GC,84,bobby-julich,31,team-telekom-2003,5,1:08:21,..
stage-7,Stage,19,rui-lavarinhas,32,milaneza-mss-2003,,0:11,
stage-7,Stage,20,alexandre-vinokourov,29,team-telekom-2003,,0:11,
overall,GC,85,alberto-lopez-de-munain,31,euskaltel-euskadi-2003,5,1:09:08,..
overall,GC,86,julian-winn,30,team-fakta-2003,5,1:09:41,..
overall,GC,87,andy-flickinger,24,ag2r-prevoyance-2003,5,1:09:57,..
stage-7,Stage,21,jose-alberto-martinez,27,euskaltel-euskadi-2003,,1:42,
stage-7,Stage,22,joaquim-rodriguez,23,o.n.c.e.-eroski-2003,,1:42,
stage-7,Stage,23,david-latasa-lasa,29,kelme-costa-blanca-2003,,1:42,
overall,GC,88,nicola-loda,31,fassa-bortolo-2003,5,1:11:54,..
overall,GC,89,nicolas-portal,23,ag2r-prevoyance-2003,5,1:14:59,..
stage-7,Stage,24,tyler-hamilton,32,csc-proteam-2003,,1:42,
stage-7,Stage,25,alexandre-botcharov,28,ag2r-prevoyance-2003,,1:42,
overall,GC,90,damon-kluck,25,us-postal-service-2003,5,1:18:04,..
overall,GC,91,mario-aerts,28,team-telekom-2003,5,1:32:19,..
stage-7,Stage,26,kurt-van-de-wouwer,31,quickstep-davitamon-2003,,1:42,
stage-7,Stage,27,oscar-camenzind,31,phonak-hearing-systems-2003,,1:42,
stage-7,Stage,28,kim-kirchen,24,fassa-bortolo-2003,,1:42,
stage-7,Stage,29,cedric-fragniere,27,credit-agricole-2003,,1:42,
stage-7,Stage,31,lennie-kristensen,34,csc-proteam-2003,,4:32,
stage-7,Stage,32,walter-beneteau,30,brioches-la-boulangere-2003,,4:32,
stage-7,Stage,33,stephane-goubert,33,jean-delatour-2003,,4:32,
stage-7,Stage,34,benoit-poilvet,26,credit-agricole-2003,,4:32,
stage-7,Stage,35,jens-voigt,31,credit-agricole-2003,,4:32,
stage-7,Stage,36,udo-bolts,36,gerolsteiner-2003,,4:32,
stage-7,Stage,37,carlos-sastre,27,csc-proteam-2003,,4:32,
stage-7,Stage,38,ruben-diaz-de-cerio,26,euskaltel-euskadi-2003,,4:32,
stage-7,Stage,39,cedric-vasseur,32,cofidis-2003,,4:32,
stage-7,Stage,40,mikel-astarloza,23,ag2r-prevoyance-2003,,7:33,
stage-7,Stage,41,thomas-voeckler,23,brioches-la-boulangere-2003,,7:57,
stage-7,Stage,42,jerome-pineau,23,brioches-la-boulangere-2003,,7:57,
stage-7,Stage,43,frank-schleck,22,csc-proteam-2003,,7:57,
stage-7,Stage,44,manuel-calvente-corbas,26,csc-proteam-2003,,7:57,
stage-7,Stage,45,fabrice-gougot,31,phonak-hearing-systems-2003,,7:57,
stage-7,Stage,46,didier-rous,32,brioches-la-boulangere-2003,,7:57,
stage-7,Stage,47,angel-castresana,31,o.n.c.e.-eroski-2003,,7:57,
stage-7,Stage,48,david-arroyo,23,o.n.c.e.-eroski-2003,,7:57,
stage-7,Stage,49,constantino-zaballa,24,kelme-costa-blanca-2003,,7:57,
stage-7,Stage,50,marco-velo,29,fassa-bortolo-2003,,7:57,
stage-7,Stage,51,richard-virenque,33,quickstep-davitamon-2003,,7:57,
stage-7,Stage,52,josu-silloniz,25,euskaltel-euskadi-2003,,7:57,
stage-7,Stage,53,nicolas-jalabert,29,csc-proteam-2003,,7:57,
stage-7,Stage,54,pedro-cardoso,28,milaneza-mss-2003,,7:57,
stage-7,Stage,55,marius-sabaliauskas,24,saeco-2003,,7:57,
stage-7,Stage,56,koldo-gil-perez,25,o.n.c.e.-eroski-2003,,7:57,
stage-7,Stage,57,igor-astarloa-ascasibar,26,saeco-2003,,7:57,
stage-7,Stage,58,jean-cyril-robin,33,fdjeux.com-2003,,7:57,
stage-7,Stage,59,sebastien-joly,23,jean-delatour-2003,,7:57,
stage-7,Stage,60,lars-ytting-bak,23,team-fakta-2003,,15:03,
stage-7,Stage,61,koos-moerenhout,29,lotto-domo-2003,,15:03,
stage-7,Stage,62,wilfried-cretskens,26,quickstep-davitamon-2003,,15:03,
stage-7,Stage,63,inigo-chaurreau-bernardez,29,ag2r-prevoyance-2003,,15:03,
stage-7,Stage,64,nicola-loda,31,fassa-bortolo-2003,,15:03,
stage-7,Stage,65,mikel-pradera,28,o.n.c.e.-eroski-2003,,15:03,
stage-7,Stage,66,julian-winn,30,team-fakta-2003,,15:03,
stage-7,Stage,67,leon-van-bon,31,lotto-domo-2003,,15:03,
stage-7,Stage,68,tristan-hoffman,33,csc-proteam-2003,,15:03,
stage-7,Stage,69,franck-renier,28,brioches-la-boulangere-2003,,15:03,
stage-7,Stage,70,franck-bouyer,28,brioches-la-boulangere-2003,,15:03,
stage-7,Stage,71,fabian-cancellara,21,fassa-bortolo-2003,,15:03,
stage-7,Stage,72,guido-trenti,30,fassa-bortolo-2003,,15:03,
stage-7,Stage,73,sandy-casar,24,fdjeux.com-2003,,15:03,
stage-7,Stage,74,alberto-lopez-de-munain,31,euskaltel-euskadi-2003,,15:03,
stage-7,Stage,75,lizuarte-martins,24,milaneza-mss-2003,,15:03,
stage-7,Stage,76,damon-kluck,25,us-postal-service-2003,,15:03,
stage-7,Stage,77,unai-etxebarria-arana,30,euskaltel-euskadi-2003,,15:03,
stage-7,Stage,78,bobby-julich,31,team-telekom-2003,,15:03,
stage-7,Stage,79,christophe-oriol,30,ag2r-prevoyance-2003,,15:03,
stage-7,Stage,80,torsten-hiekmann,22,team-telekom-2003,,15:03,
stage-7,Stage,81,frederic-bessy,31,cofidis-2003,,15:03,
stage-7,Stage,82,alexandre-moos,30,phonak-hearing-systems-2003,,17:26,
stage-7,Stage,83,mederic-clain,26,cofidis-2003,,17:26,
stage-7,Stage,84,antonio-cruz-1,31,us-postal-service-2003,,17:26,
stage-7,Stage,85,benoit-joachim,27,us-postal-service-2003,,17:26,
stage-7,Stage,86,matthias-kessler,23,team-telekom-2003,,17:26,
stage-7,Stage,87,nico-mattan,31,cofidis-2003,,18:49,
stage-7,Stage,88,bradley-wiggins,22,fdjeux.com-2003,,18:49,
stage-7,Stage,89,nicolas-portal,23,ag2r-prevoyance-2003,,18:49,
stage-7,Stage,90,andy-flickinger,24,ag2r-prevoyance-2003,,18:49,
stage-7,Stage,91,mario-aerts,28,team-telekom-2003,,18:49,
stage-7,GC,1,alexandre-vinokourov,29,team-telekom-2003,250, 23:30:04,..
stage-7,GC,2,mikel-zarrabeitia,32,o.n.c.e.-eroski-2003,190,0:43,..
stage-7,GC,3,davide-rebellin,31,gerolsteiner-2003,160,0:54,..
stage-7,GC,4,jorg-jaksche,26,o.n.c.e.-eroski-2003,140,0:55,..
stage-7,GC,5,sylvain-chavanel,23,brioches-la-boulangere-2003,120,1:24,..
stage-7,GC,6,david-bernabeu,28,milaneza-mss-2003,110,1:28,..
stage-7,GC,7,claus-michael-moller,34,milaneza-mss-2003,100,1:30,..
stage-7,GC,8,volodymyr-gustov,26,fassa-bortolo-2003,90,1:41,..
stage-7,GC,9,samuel-sanchez,25,euskaltel-euskadi-2003,80,1:48,..
stage-7,GC,10,oscar-pereiro,25,phonak-hearing-systems-2003,70,2:04,..
stage-7,GC,11,gilberto-simoni,31,saeco-2003,60,2:19,..
stage-7,GC,12,kurt-asle-arvesen,28,team-fakta-2003,55,2:22,..
stage-7,GC,13,marcos-antonio-serrano,30,o.n.c.e.-eroski-2003,50,2:34,..
stage-7,GC,14,ivan-ramiro-parra,27,kelme-costa-blanca-2003,45,2:35,..
stage-7,GC,15,laurent-lefevre,26,jean-delatour-2003,40,3:33,..
stage-7,GC,16,kim-kirchen,24,fassa-bortolo-2003,36,4:16,..
stage-7,GC,17,alexandre-botcharov,28,ag2r-prevoyance-2003,32,",,",..
stage-7,GC,18,david-latasa-lasa,29,kelme-costa-blanca-2003,28,4:20,..
stage-7,GC,19,kurt-van-de-wouwer,31,quickstep-davitamon-2003,24,4:24,..
stage-7,GC,20,cedric-fragniere,27,credit-agricole-2003,20,4:25,..
stage-7,GC,21,fabian-jeker,34,milaneza-mss-2003,18,4:51,..
stage-7,GC,22,joaquim-rodriguez,23,o.n.c.e.-eroski-2003,16,5:10,..
stage-7,GC,23,oscar-camenzind,31,phonak-hearing-systems-2003,14,5:13,..
stage-7,GC,24,laurent-brochard,34,ag2r-prevoyance-2003,12,5:21,..
stage-7,GC,26,gorka-gonzalez-larranaga,25,euskaltel-euskadi-2003,9,7:33,..
stage-7,GC,27,didier-rous,32,brioches-la-boulangere-2003,8,10:26,..
stage-7,GC,28,walter-beneteau,30,brioches-la-boulangere-2003,7,10:51,..
stage-7,GC,29,jean-cyril-robin,33,fdjeux.com-2003,6,11:55,..
stage-7,GC,30,jerome-pineau,23,brioches-la-boulangere-2003,5,12:42,..
stage-7,GC,31,marco-velo,29,fassa-bortolo-2003,5,13:04,..
stage-7,GC,32,udo-bolts,36,gerolsteiner-2003,5,13:06,..
stage-7,GC,33,pedro-cardoso,28,milaneza-mss-2003,5,13:41,..
stage-7,GC,34,richard-virenque,33,quickstep-davitamon-2003,5,",,",..
stage-7,GC,35,santiago-perez,25,phonak-hearing-systems-2003,5,13:44,..
stage-7,GC,36,carlos-sastre,27,csc-proteam-2003,5,17:30,..
stage-7,GC,37,stephane-goubert,33,jean-delatour-2003,5,17:48,..
stage-7,GC,38,sebastien-joly,23,jean-delatour-2003,5,21:22,..
stage-7,GC,39,rui-lavarinhas,32,milaneza-mss-2003,5,21:51,..
stage-7,GC,40,tyler-hamilton,32,csc-proteam-2003,5,25:49,..
stage-7,GC,41,angel-castresana,31,o.n.c.e.-eroski-2003,5,25:57,..
stage-7,GC,42,jens-voigt,31,credit-agricole-2003,5,26:19,..
stage-7,GC,43,thomas-voeckler,23,brioches-la-boulangere-2003,5,26:32,..
stage-7,GC,44,ruben-diaz-de-cerio,26,euskaltel-euskadi-2003,5,26:35,..
stage-7,GC,45,benoit-poilvet,26,credit-agricole-2003,5,26:45,..
stage-7,GC,46,josu-silloniz,25,euskaltel-euskadi-2003,5,28:08,..
stage-7,GC,47,franck-renier,28,brioches-la-boulangere-2003,5,28:25,..
stage-7,GC,48,koldo-gil-perez,25,o.n.c.e.-eroski-2003,5,28:34,..
stage-7,GC,49,constantino-zaballa,24,kelme-costa-blanca-2003,5,29:11,..
stage-7,GC,50,franck-bouyer,28,brioches-la-boulangere-2003,5,29:13,..
stage-7,GC,51,igor-astarloa-ascasibar,26,saeco-2003,5,29:28,..
stage-7,GC,52,cedric-vasseur,32,cofidis-2003,5,30:32,..
stage-7,GC,53,benoit-joachim,27,us-postal-service-2003,5,31:55,..
stage-7,GC,54,sandy-casar,24,fdjeux.com-2003,5,36:57,..
stage-7,GC,55,fabian-cancellara,21,fassa-bortolo-2003,5,36:59,..
stage-7,GC,56,frederic-bessy,31,cofidis-2003,5,37:59,..
stage-7,GC,57,david-arroyo,23,o.n.c.e.-eroski-2003,5,38:39,..
stage-7,GC,58,koos-moerenhout,29,lotto-domo-2003,5,39:25,..
stage-7,GC,59,mikel-astarloza,23,ag2r-prevoyance-2003,5,39:42,..
stage-7,GC,60,nico-mattan,31,cofidis-2003,5,40:29,..
stage-7,GC,61,lennie-kristensen,34,csc-proteam-2003,5,40:36,..
stage-7,GC,62,alexandre-moos,30,phonak-hearing-systems-2003,5,44:59,..
stage-7,GC,63,lars-ytting-bak,23,team-fakta-2003,5,45:13,..
stage-7,GC,64,matthias-kessler,23,team-telekom-2003,5,45:55,..
stage-7,GC,65,guido-trenti,30,fassa-bortolo-2003,5,46:10,..
stage-7,GC,66,nicolas-jalabert,29,csc-proteam-2003,5,47:16,..
stage-7,GC,67,fabrice-gougot,31,phonak-hearing-systems-2003,5,48:26,..
stage-7,GC,68,mikel-pradera,28,o.n.c.e.-eroski-2003,5,50:02,..
stage-7,GC,69,frank-schleck,22,csc-proteam-2003,5,50:09,..
stage-7,GC,70,jose-alberto-martinez,27,euskaltel-euskadi-2003,5,51:11,..
stage-7,GC,71,marius-sabaliauskas,24,saeco-2003,5,51:14,..
stage-7,GC,72,unai-etxebarria-arana,30,euskaltel-euskadi-2003,5,51:24,..
stage-7,GC,73,torsten-hiekmann,22,team-telekom-2003,5,54:26,..
stage-7,GC,74,mederic-clain,26,cofidis-2003,5,54:57,..
stage-7,GC,75,manuel-calvente-corbas,26,csc-proteam-2003,5,57:05,..
stage-7,GC,76,tristan-hoffman,33,csc-proteam-2003,5,59:36,..
stage-7,GC,77,antonio-cruz-1,31,us-postal-service-2003,5,59:41,..
stage-7,GC,78,wilfried-cretskens,26,quickstep-davitamon-2003,5,1:00:42,..
stage-7,GC,79,lizuarte-martins,24,milaneza-mss-2003,5,1:02:04,..
stage-7,GC,80,bradley-wiggins,22,fdjeux.com-2003,5,1:04:29,..
stage-7,GC,81,christophe-oriol,30,ag2r-prevoyance-2003,5,1:04:39,..
stage-7,GC,82,inigo-chaurreau-bernardez,29,ag2r-prevoyance-2003,5,1:04:49,..
stage-7,GC,83,leon-van-bon,31,lotto-domo-2003,5,1:04:57,..
stage-7,GC,84,bobby-julich,31,team-telekom-2003,5,1:08:21,..
stage-7,GC,85,alberto-lopez-de-munain,31,euskaltel-euskadi-2003,5,1:09:08,..
stage-7,GC,86,julian-winn,30,team-fakta-2003,5,1:09:41,..
stage-7,GC,87,andy-flickinger,24,ag2r-prevoyance-2003,5,1:09:57,..
stage-7,GC,88,nicola-loda,31,fassa-bortolo-2003,5,1:11:54,..
stage-7,GC,89,nicolas-portal,23,ag2r-prevoyance-2003,5,1:14:59,..
stage-7,GC,90,damon-kluck,25,us-postal-service-2003,5,1:18:04,..
stage-7,GC,91,mario-aerts,28,team-telekom-2003,5,1:32:19,..
